{
  "project_info": {
    "project_number": "226963472870",
    "project_id": "chatapp-1bae7",
    "storage_bucket": "chatapp-1bae7.appspot.com"
  },
  "client": [
    {
      "client_info": {
        "mobilesdk_app_id": "1:226963472870:android:45c47243e17f3a49ddd627",
        "android_client_info": {
          "package_name": "com.chatapp"
        }
      },
      "oauth_client": [
        {
          "client_id": "226963472870-psq3o7tquln72tml7i2hvvdk030t7095.apps.googleusercontent.com",
          "client_type": 3
        }
      ],
      "api_key": [
        {
          "current_key": "AIzaSyAgVjD95qveS-wmuT-IU-F9ceS0LEt7EDI"
        }
      ],
      "services": {
        "appinvite_service": {
          "other_platform_oauth_client": [
            {
              "client_id": "226963472870-psq3o7tquln72tml7i2hvvdk030t7095.apps.googleusercontent.com",
              "client_type": 3
            }
          ]
        }
      }
    }
  ],
  "configuration_version": "1"
}